<svg width="16" height="16" viewBox="0 0 16 16" fill="none" xmlns="http://www.w3.org/2000/svg">
<path fill-rule="evenodd" clip-rule="evenodd" d="M8 1C7.44772 1 7 1.44772 7 2C7 2.03342 7.00164 2.06646 7.00484 2.09904C4.7202 2.56045 3.00002 4.57934 3.00002 7V11L1.70713 12.2929C1.07716 12.9229 1.52333 14 2.41424 14H6.26756C6.61337 14.5978 7.25972 15 8 15C8.74028 15 9.38663 14.5978 9.73244 14H13.5858C14.4767 14 14.9229 12.9229 14.2929 12.2929L13 11V7C13 4.57932 11.2798 2.56042 8.99516 2.09903C8.99836 2.06646 9 2.03342 9 2C9 1.44772 8.55228 1 8 1ZM11 12V7C11 5.34315 9.65688 4 8.00002 4C6.34317 4 5.00002 5.34315 5.00002 7V12L11 12Z" fill="black"/>
</svg>
