<svg width="16" height="16" viewBox="0 0 16 16" fill="none" xmlns="http://www.w3.org/2000/svg">
<path fill-rule="evenodd" clip-rule="evenodd" d="M9.82837 3H12.9999L12.9999 6.17157L6.17182 12.9997L3.00024 9.82812L9.82837 3ZM8.41416 1.58579C8.78923 1.21071 9.29794 1 9.82837 1H14.9999V6.17157C14.9999 6.70201 14.7892 7.21071 14.4142 7.58579L7.58603 14.4139C6.80498 15.195 5.53865 15.195 4.7576 14.4139L1.58603 11.2423C0.804983 10.4613 0.804981 9.19496 1.58603 8.41391L8.41416 1.58579ZM10.9999 6C11.5522 6 11.9999 5.55228 11.9999 5C11.9999 4.44772 11.5522 4 10.9999 4C10.4477 4 9.99994 4.44772 9.99994 5C9.99994 5.55228 10.4477 6 10.9999 6Z" fill="black"/>
</svg>
